<?xml version="1.0" encoding="utf-8"?>
<!-- Generator: Adobe Illustrator 24.1.2, SVG Export Plug-In . SVG Version: 6.00 Build 0)  -->
<svg version="1.1" id="Layer_1" xmlns="http://www.w3.org/2000/svg" xmlns:xlink="http://www.w3.org/1999/xlink" x="0px" y="0px"
	 viewBox="0 0 197.9 220.5" style="enable-background:new 0 0 197.9 220.5;" xml:space="preserve">
<style type="text/css">
	.st0{fill:#FFFFFF;}
</style>
<g>
	<path class="st0" d="M124.9,23.9l-1,16.5c29.4,10.3,50.5,38.3,50.5,71.2c0,41.6-33.8,75.4-75.4,75.4c-41.6,0-75.4-33.8-75.4-75.4
		c0-32.7,21-60.7,50.2-71.1L73,24C35.2,35.2,7.6,70.2,7.6,111.6C7.6,162,48.6,203,99,203c50.4,0,91.4-41,91.4-91.4
		C190.4,70.2,162.7,35.1,124.9,23.9z"/>
	<polygon class="st0" points="90.3,110.6 106.7,110.6 112.8,8.4 85.2,8.4 	"/>
</g>
</svg>
