{
  "title": "PlayDJ",
  "description": [
    "PlayDJ is a UK startup on path to become the home of DJ Livestreaming.",
    "I came on board to re-design and develop their front-end Nuxt application allowing DJ's to stream their mix sessions to a global audience of live music lovers."
  ],
  "next": {
    "slug": "wanderwall",
    "label": "Wanderwall",
    "theme": "ocean"
  },
  "prev": {
    "slug": "leadingedge",
    "label": "Leading Edge",
    "theme": "nectarine"
  },
  "featureVideo": "y5ytkl",
  "items": [
    {
      "type": "figure",
      "data": {
        "src": "playdj-live",
        "alt": "alt",
        "caption": ""
      }
    },
    {
      "type": "figure",
      "data": {
        "src": "playdj-upcoming",
        "alt": "alt",
        "caption": ""
      }
    },
    {
      "type": "figure",
      "data": {
        "src": "playdj-ticketed-stream",
        "alt": "alt",
        "caption": ""
      }
    },
    {
      "type": "figure",
      "data": {
        "src": "playdj-profile",
        "alt": "alt",
        "caption": ""
      }
    },
    {
      "type": "figure",
      "data": {
        "src": "playdj-livechat",
        "alt": "alt",
        "caption": ""
      }
    },
    {
      "type": "figure",
      "data": {
        "src": "playdj-theatre-mode",
        "alt": "alt",
        "caption": ""
      }
    },
    {
      "type": "figure",
      "data": {
        "src": "playdj-login",
        "alt": "alt",
        "caption": ""
      }
    },
    {
      "type": "figure",
      "data": {
        "src": "playdj-setup",
        "alt": "alt",
        "caption": ""
      }
    },
    {
      "type": "figure",
      "data": {
        "src": "playdj-dashboard",
        "alt": "alt",
        "caption": ""
      }
    }
  ]
}
